Week 10: November 13 2025 – INF2167: R For Data Science – In Class Coding Demonstrations
…
In tidyverse syntax, multiple commands are strung together using “pipes”: %>%. The pipe takes the result of what was generated before it, and passes that the the next function. Most things that I am showing you using tidyverse syntax could also be accomplished through base R, but that approach would involve assigning off intermediary objects. tidyverse is elegant in the way that it allows us to compute complex multi-step computational processes in a single step.

Favorite Tidyverse Functions

Select Some Rows

You may want to choose only some rows of a given dataset to work with.

Select rows that are Gentoo penguins who have a bill length over 40mm:

data %>% 
  filter(species == "Gentoo", bill_length_mm > 40)

# A tibble: 123 × 8
   species island bill_length_mm bill_depth_mm flipper_length_mm body_mass_g
   <fct>   <fct>           <dbl>         <dbl>             <int>       <int>
 1 Gentoo  Biscoe           46.1          13.2               211        4500
 2 Gentoo  Biscoe           50            16.3               230        5700
 3 Gentoo  Biscoe           48.7          14.1               210        4450
 4 Gentoo  Biscoe           50            15.2               218        5700
 5 Gentoo  Biscoe           47.6          14.5               215        5400
 6 Gentoo  Biscoe           46.5          13.5               210        4550
 7 Gentoo  Biscoe           45.4          14.6               211        4800
 8 Gentoo  Biscoe           46.7          15.3               219        5200
 9 Gentoo  Biscoe           43.3          13.4               209        4400
10 Gentoo  Biscoe           46.8          15.4               215        5150
# ℹ 113 more rows
# ℹ 2 more variables: sex <fct>, year <int>
…
Same values as the ouptut above

Selecting all the Gentoo and Chinstrap rows is the same as selecting all the rows that are not Adelie penguins!

Arrange the Data

Order the rows based on the values in a column:

data %>%
  arrange(body_mass_g)

# A tibble: 344 × 8
   species   island   bill_length_mm bill_depth_mm flipper_length_mm body_mass_g
   <fct>     <fct>             <dbl>         <dbl>             <int>       <int>
 1 Chinstrap Dream              46.9          16.6               192        2700
 2 Adelie    Biscoe             36.5          16.6               181        2850
 3 Adelie    Biscoe             36.4          17.1               184        2850
 4 Adelie    Biscoe             34.5          18.1               187        2900
 5 Adelie    Dream              33.1          16.1               178        2900
 6 Adelie    Torgers…           38.6          17                 188        2900
 7 Chinstrap Dream              43.2          16.6               187        2900
 8 Adelie    Biscoe             37.9          18.6               193        2925
 9 Adelie    Dream              37.5          18.9               179        2975
10 Adelie    Dream              37            16.9               185        3000
# ℹ 334 more rows
# ℹ 2 more variables: sex <fct>, year <int>

Rows arranged by penguin weights: The lightest penguin’s row is shown first.

data %>%
  arrange(desc(body_mass_g))

# A tibble: 344 × 8
   species island bill_length_mm bill_depth_mm flipper_length_mm body_mass_g
   <fct>   <fct>           <dbl>         <dbl>             <int>       <int>
 1 Gentoo  Biscoe           49.2          15.2               221        6300
 2 Gentoo  Biscoe           59.6          17                 230        6050
 3 Gentoo  Biscoe           51.1          16.3               220        6000
 4 Gentoo  Biscoe           48.8          16.2               222        6000
 5 Gentoo  Biscoe           45.2          16.4               223        5950
 6 Gentoo  Biscoe           49.8          15.9               229        5950
 7 Gentoo  Biscoe           48.4          14.6               213        5850
 8 Gentoo  Biscoe           49.3          15.7               217        5850
 9 Gentoo  Biscoe           55.1          16                 230        5850
10 Gentoo  Biscoe           49.5          16.2               229        5800
# ℹ 334 more rows
# ℹ 2 more variables: sex <fct>, year <int>

Rows arranged by body mass

Heaviest penguin is first down to the lightest penguin.

Selecting Some Columns

Sometimes datasets have many columns that are irrelevant to a given analysis. Sometimes it works best to select the columns that will be involved in making each analysis or chart to ensure that extraneous problems don’t create issues.

data %>%
  select(c("body_mass_g", "species", "sex"))

# A tibble: 344 × 3
   body_mass_g species sex   
         <int> <fct>   <fct> 
 1        3750 Adelie  male  
 2        3800 Adelie  female
 3        3250 Adelie  female
 4          NA Adelie  <NA>  
 5        3450 Adelie  female
 6        3650 Adelie  male  
 7        3625 Adelie  female
 8        4675 Adelie  male  
 9        3475 Adelie  <NA>  
10        4250 Adelie  <NA>  
# ℹ 334 more rows
…
